{
    "code":200,
    "message":"OK",
    "data":{
        "swipers":[
            {
                "title":"霹雳布袋戏",
                "image":"https://i0.hdslb.com/bfs/archive/489266ea1effff1b72f9a3e8e0ed8d7997fb4cac.jpg"
            },
            {
                "title":"刺客伍六七",
                "image":"https://i0.hdslb.com/bfs/archive/acc985be0ba4e8bae113484d1c3ed2f80eed9ed6.jpg"
            },
            {
                "title":"大秦帝国",
                "image":"https://i2.hdslb.com/bfs/archive/2c5fa87626ad832032af42512126cd1bda67df7d.jpg"
            }
        ],
        "modules":[
            {"text":"电影","icon":"https://gitee.com/codetown/codedata/raw/master/cmovie/images/icons_01.png"},
            {"text":"热剧","icon":"https://gitee.com/codetown/codedata/raw/master/cmovie/images/icons_02.png"},
            {"text":"MTV","icon":"https://gitee.com/codetown/codedata/raw/master/cmovie/images/icons_03.png"},
            {"text":"国漫","icon":"https://gitee.com/codetown/codedata/raw/master/cmovie/images/icons_04.png"},
            {"text":"武侠","icon":"https://gitee.com/codetown/codedata/raw/master/cmovie/images/icons_05.png"},
            {"text":"功夫","icon":"https://gitee.com/codetown/codedata/raw/master/cmovie/images/icons_06.png"},
            {"text":"计算机课","icon":"https://gitee.com/codetown/codedata/raw/master/cmovie/images/icons_07.png"},
            {"text":"杂谈","icon":"https://gitee.com/codetown/codedata/raw/master/cmovie/images/icons_08.png"}

        ],
        "videos":[
            {"title":"霹雳侠峰","image":"https://gitee.com/codetown/codedata/raw/master/cmovie/images/n1.jpg"},
            {"title":"火影忍者","image":"https://gitee.com/codetown/codedata/raw/master/cmovie/images/n2.jpg"},
            {"title":"一人之下","image":"https://gitee.com/codetown/codedata/raw/master/cmovie/images/n3.jpg"},
            {"title":"刺客五六七","image":"https://gitee.com/codetown/codedata/raw/master/cmovie/images/n4.jpg"},
            {"title":"狐妖小红娘","image":"https://gitee.com/codetown/codedata/raw/master/cmovie/images/n5.jpg"},
            {"title":"大赢家","image":"https://gitee.com/codetown/codedata/raw/master/cmovie/images/n6.jpg"},
            {"title":"叶问4","image":"https://gitee.com/codetown/codedata/raw/master/cmovie/images/n7.jpg"},
            {"title":"庆余年","image":"https://gitee.com/codetown/codedata/raw/master/cmovie/images/n8.jpg"},
            {"title":"生活大爆炸","image":"https://gitee.com/codetown/codedata/raw/master/cmovie/images/n9.jpg"},
            {"title":"三国演义","image":"https://gitee.com/codetown/codedata/raw/master/cmovie/images/n10.jpg"},
            {"title":"老友记","image":"https://gitee.com/codetown/codedata/raw/master/cmovie/images/n11.jpg"},
            {"title":"法证先锋4","image":"https://gitee.com/codetown/codedata/raw/master/cmovie/images/n12.jpg"}
        ]
    }
}